<svg width="16" height="14" viewBox="0 0 16 14" fill="none" xmlns="http://www.w3.org/2000/svg">
    <g clip-path="url(#clip0_1_8)">
        <path fill-rule="evenodd" clip-rule="evenodd"
              d="M15 8.71469C15 11.0817 11.866 13.0007 8 13.0007C4.134 13.0007 1 11.0817 1 8.71469C1 6.34769 4.134 4.42969 8 4.42969C11.866 4.42969 15 6.34769 15 8.71469Z"
              stroke="#000000" stroke-linecap="round" stroke-linejoin="round"/>
        <path fill-rule="evenodd" clip-rule="evenodd"
              d="M9.74969 8.71409C9.76431 9.425 9.34734 10.0741 8.6947 10.3563C8.04207 10.6386 7.28353 10.4979 6.77554 10.0003C6.26756 9.50279 6.11112 8.74734 6.37974 8.08898C6.64836 7.43062 7.28863 7.00025 7.99968 7.00009C8.45905 6.9953 8.9015 7.17319 9.22969 7.49463C9.55789 7.81607 9.74494 8.25473 9.74969 8.71409Z"
              stroke="#000000" stroke-linecap="round" stroke-linejoin="round"/>
        <path d="M7.5 4.429C7.5 4.70514 7.72386 4.929 8 4.929C8.27614 4.929 8.5 4.70514 8.5 4.429H7.5ZM8.5 1C8.5 0.723858 8.27614 0.5 8 0.5C7.72386 0.5 7.5 0.723858 7.5 1H8.5ZM14.5709 2.94101C14.6964 2.695 14.5986 2.39388 14.3526 2.26844C14.1066 2.14299 13.8055 2.24072 13.68 2.48673L14.5709 2.94101ZM12.243 5.30473C12.1176 5.55073 12.2153 5.85185 12.4613 5.9773C12.7073 6.10274 13.0085 6.00501 13.1339 5.75901L12.243 5.30473ZM2.32043 2.48686C2.19498 2.24086 1.89386 2.14312 1.64786 2.26857C1.40186 2.39402 1.30412 2.69514 1.42957 2.94114L2.32043 2.48686ZM2.86657 5.75914C2.99202 6.00514 3.29314 6.10288 3.53914 5.97743C3.78514 5.85198 3.88288 5.55086 3.75743 5.30486L2.86657 5.75914ZM8.5 4.429V1H7.5V4.429H8.5ZM13.68 2.48673L12.243 5.30473L13.1339 5.75901L14.5709 2.94101L13.68 2.48673ZM1.42957 2.94114L2.86657 5.75914L3.75743 5.30486L2.32043 2.48686L1.42957 2.94114Z"
              fill="#000000"/>
    </g>
    <defs>
        <clipPath id="clip0_1_8">
            <rect width="16" height="14" fill="white"/>
        </clipPath>
    </defs>
</svg>
