<svg width="24" height="24" viewBox="0 0 24 24" fill="none" xmlns="http://www.w3.org/2000/svg">
<path fill-rule="evenodd" clip-rule="evenodd" d="M16.7423 8.05664H7.45557C6.94292 8.05664 6.52734 8.47222 6.52734 8.98487V16.414C6.52734 17.9526 7.77459 19.1998 9.31314 19.1998H14.8847C15.6236 19.1998 16.3321 18.9063 16.8546 18.3839C17.377 17.8614 17.6705 17.1529 17.6705 16.414V8.98487C17.6705 8.47222 17.2549 8.05664 16.7423 8.05664Z" stroke="#FF808B" stroke-linecap="round" stroke-linejoin="round"/>
<path fill-rule="evenodd" clip-rule="evenodd" d="M15.4418 5.82824L14.635 4.21583C14.4464 3.83837 14.0607 3.59983 13.6388 3.59961H10.5588C10.1369 3.59983 9.75124 3.83837 9.56262 4.21583L8.75586 5.82824H15.4418Z" stroke="#FF808B" stroke-linecap="round" stroke-linejoin="round"/>
<path d="M10.7411 11.7715C10.7411 11.4953 10.5172 11.2715 10.2411 11.2715C9.96495 11.2715 9.7411 11.4953 9.7411 11.7715H10.7411ZM9.7411 15.4855C9.7411 15.7616 9.96495 15.9855 10.2411 15.9855C10.5172 15.9855 10.7411 15.7616 10.7411 15.4855H9.7411ZM14.4575 11.7715C14.4575 11.4953 14.2337 11.2715 13.9575 11.2715C13.6814 11.2715 13.4575 11.4953 13.4575 11.7715H14.4575ZM13.4575 15.4855C13.4575 15.7616 13.6814 15.9855 13.9575 15.9855C14.2337 15.9855 14.4575 15.7616 14.4575 15.4855H13.4575ZM15.4427 5.32812C15.1665 5.32812 14.9427 5.55198 14.9427 5.82812C14.9427 6.10427 15.1665 6.32812 15.4427 6.32812V5.32812ZM17.6713 6.32812C17.9474 6.32812 18.1713 6.10427 18.1713 5.82812C18.1713 5.55198 17.9474 5.32812 17.6713 5.32812V6.32812ZM8.75598 6.32812C9.03212 6.32812 9.25598 6.10427 9.25598 5.82812C9.25598 5.55198 9.03212 5.32812 8.75598 5.32812V6.32812ZM6.52734 5.32812C6.2512 5.32812 6.02734 5.55198 6.02734 5.82812C6.02734 6.10427 6.2512 6.32812 6.52734 6.32812V5.32812ZM9.7411 11.7715V15.4855H10.7411V11.7715H9.7411ZM13.4575 11.7715V15.4855H14.4575V11.7715H13.4575ZM15.4427 6.32812H17.6713V5.32812H15.4427V6.32812ZM8.75598 5.32812H6.52734V6.32812H8.75598V5.32812Z" fill="#FF808B"/>
</svg>
