<svg width="20" height="20" viewBox="0 0 20 20" fill="none" xmlns="http://www.w3.org/2000/svg">
<path fill-rule="evenodd" clip-rule="evenodd" d="M9.40839 7.20783C9.79837 6.62174 9.70035 5.83845 9.17798 5.36652C8.65561 4.8946 7.86642 4.87636 7.32281 5.32365C6.7792 5.77095 6.6451 6.54887 7.00759 7.15235C7.37008 7.75583 8.11983 8.00287 8.77005 7.73307C9.0299 7.62464 9.25196 7.44193 9.40839 7.20783Z" stroke="#348EFF" stroke-linecap="round" stroke-linejoin="round"/>
<path fill-rule="evenodd" clip-rule="evenodd" d="M9.40839 15.1961C9.79837 14.61 9.70035 13.8267 9.17798 13.3548C8.65561 12.8829 7.86642 12.8646 7.32281 13.3119C6.7792 13.7592 6.6451 14.5372 7.00759 15.1406C7.37008 15.7441 8.11983 15.9911 8.77005 15.7213C9.0299 15.6129 9.25196 15.4302 9.40839 15.1961V15.1961Z" stroke="#348EFF" stroke-linecap="round" stroke-linejoin="round"/>
<path fill-rule="evenodd" clip-rule="evenodd" d="M11.4382 11.2C11.0482 10.6139 11.1462 9.83063 11.6686 9.35871C12.1909 8.88678 12.9801 8.86855 13.5237 9.31584C14.0674 9.76313 14.2014 10.5411 13.839 11.1445C13.4765 11.748 12.7267 11.9951 12.0765 11.7253C11.8167 11.6168 11.5946 11.4341 11.4382 11.2V11.2Z" stroke="#348EFF" stroke-linecap="round" stroke-linejoin="round"/>
<path d="M9.64837 5.91406C9.37223 5.91406 9.14837 6.13792 9.14837 6.41406C9.14837 6.6902 9.37223 6.91406 9.64837 6.91406V5.91406ZM15.8459 6.91406C16.122 6.91406 16.3459 6.6902 16.3459 6.41406C16.3459 6.13792 16.122 5.91406 15.8459 5.91406V6.91406ZM6.80269 6.91406C7.07884 6.91406 7.30269 6.6902 7.30269 6.41406C7.30269 6.13792 7.07884 5.91406 6.80269 5.91406V6.91406ZM5 5.91406C4.72386 5.91406 4.5 6.13792 4.5 6.41406C4.5 6.6902 4.72386 6.91406 5 6.91406V5.91406ZM9.64837 13.9067C9.37223 13.9067 9.14837 14.1306 9.14837 14.4067C9.14837 14.6829 9.37223 14.9067 9.64837 14.9067V13.9067ZM15.8459 14.9067C16.122 14.9067 16.3459 14.6829 16.3459 14.4067C16.3459 14.1306 16.122 13.9067 15.8459 13.9067V14.9067ZM6.80269 14.9067C7.07884 14.9067 7.30269 14.6829 7.30269 14.4067C7.30269 14.1306 7.07884 13.9067 6.80269 13.9067V14.9067ZM5 13.9067C4.72386 13.9067 4.5 14.1306 4.5 14.4067C4.5 14.6829 4.72386 14.9067 5 14.9067V13.9067ZM11.1975 10.9104C11.4736 10.9104 11.6975 10.6865 11.6975 10.4104C11.6975 10.1343 11.4736 9.91041 11.1975 9.91041V10.9104ZM5 9.91041C4.72386 9.91041 4.5 10.1343 4.5 10.4104C4.5 10.6865 4.72386 10.9104 5 10.9104V9.91041ZM14.0428 9.91041C13.7667 9.91041 13.5428 10.1343 13.5428 10.4104C13.5428 10.6865 13.7667 10.9104 14.0428 10.9104V9.91041ZM15.8455 10.9104C16.1217 10.9104 16.3455 10.6865 16.3455 10.4104C16.3455 10.1343 16.1217 9.91041 15.8455 9.91041V10.9104ZM9.64837 6.91406H15.8459V5.91406H9.64837V6.91406ZM6.80269 5.91406H5V6.91406H6.80269V5.91406ZM9.64837 14.9067H15.8459V13.9067H9.64837V14.9067ZM6.80269 13.9067H5V14.9067H6.80269V13.9067ZM11.1975 9.91041H5V10.9104H11.1975V9.91041ZM14.0428 10.9104H15.8455V9.91041H14.0428V10.9104Z" fill="#348EFF"/>
</svg>
