<svg width="35" height="34" viewBox="0 0 35 34" fill="none" xmlns="http://www.w3.org/2000/svg">
<rect width="33.3333" height="33.3336" rx="8" transform="matrix(-1 3.17864e-08 3.17866e-08 1 34.3311 0.5)" fill="white"/>
<path d="M15.9978 23.5L20.4712 18.2809C20.8564 17.8316 20.8564 17.1684 20.4712 16.7191L15.9978 11.5" stroke="#348EFF" stroke-linecap="round"/>
</svg>
