<svg width="16" height="16" viewBox="0 0 16 16" fill="none" xmlns="http://www.w3.org/2000/svg">
    <g clip-path="url(#clip0_0_3)">
        <path fill-rule="evenodd" clip-rule="evenodd"
              d="M12.3153 5.38971L7.012 10.693L4.12891 7.80992L4.65924 7.27959L7.012 9.63235L11.785 4.85938L12.3153 5.38971Z"
              fill="#6DCC94" stroke="#6DCC94" stroke-width="0.5" stroke-linecap="square"/>
        <path d="M8 15.5C12.1421 15.5 15.5 12.1421 15.5 8C15.5 3.85786 12.1421 0.5 8 0.5C3.85786 0.5 0.5 3.85786 0.5 8C0.5 12.1421 3.85786 15.5 8 15.5Z"
              stroke="#6DCC94"/>
    </g>
    <defs>
        <clipPath id="clip0_0_3">
            <rect width="16" height="16" fill="white"/>
        </clipPath>
    </defs>
</svg>
