<svg width="24" height="23" viewBox="0 0 24 17" fill="none" xmlns="http://www.w3.org/2000/svg">
<g filter="url(#filter0_d_232_22900)">
<circle cx="11.9998" cy="5.2" r="3.7" stroke="#348EFF"/>
</g>
<g filter="url(#filter1_d_232_22900)">
<path d="M5 15.0004C5 10.8004 6.49374 9.40039 12.0469 9.40039C17.6 9.40039 19 10.8004 19 14.8111" stroke="#348EFF" stroke-linecap="round" stroke-linejoin="round"/>
</g>
<defs>
<filter id="filter0_d_232_22900" x="3.7998" y="0" width="16.3999" height="16.4004" filterUnits="userSpaceOnUse" color-interpolation-filters="sRGB">
<feFlood flood-opacity="0" result="BackgroundImageFix"/>
<feColorMatrix in="SourceAlpha" type="matrix" values="0 0 0 0 0 0 0 0 0 0 0 0 0 0 0 0 0 0 127 0" result="hardAlpha"/>
<feOffset dy="3"/>
<feGaussianBlur stdDeviation="2"/>
<feColorMatrix type="matrix" values="0 0 0 0 0 0 0 0 0 0 0 0 0 0 0 0 0 0 0.13 0"/>
<feBlend mode="normal" in2="BackgroundImageFix" result="effect1_dropShadow_232_22900"/>
<feBlend mode="normal" in="SourceGraphic" in2="effect1_dropShadow_232_22900" result="shape"/>
</filter>
<filter id="filter1_d_232_22900" x="0.5" y="7.90039" width="23" height="14.5996" filterUnits="userSpaceOnUse" color-interpolation-filters="sRGB">
<feFlood flood-opacity="0" result="BackgroundImageFix"/>
<feColorMatrix in="SourceAlpha" type="matrix" values="0 0 0 0 0 0 0 0 0 0 0 0 0 0 0 0 0 0 127 0" result="hardAlpha"/>
<feOffset dy="3"/>
<feGaussianBlur stdDeviation="2"/>
<feColorMatrix type="matrix" values="0 0 0 0 0 0 0 0 0 0 0 0 0 0 0 0 0 0 0.13 0"/>
<feBlend mode="normal" in2="BackgroundImageFix" result="effect1_dropShadow_232_22900"/>
<feBlend mode="normal" in="SourceGraphic" in2="effect1_dropShadow_232_22900" result="shape"/>
</filter>
</defs>
</svg>
