<svg width="16" height="19" viewBox="0 0 16 19" fill="none" xmlns="http://www.w3.org/2000/svg">
<path fill-rule="evenodd" clip-rule="evenodd" d="M13.1265 3.06211C15.86 5.81864 15.86 10.2636 13.1265 13.0201L8.17645 18.0001L3.22645 13.0211C0.492875 10.2646 0.492875 5.81964 3.22645 3.06311C4.53529 1.74291 6.31722 1.00019 8.17624 1C10.0353 0.999812 11.8174 1.74218 13.1265 3.06211Z" stroke="#348EFF" stroke-linecap="round" stroke-linejoin="round"/>
<path fill-rule="evenodd" clip-rule="evenodd" d="M10.9763 7.61034C10.9581 9.15232 9.69656 10.3893 8.15453 10.3773C6.6125 10.3652 5.3705 9.10854 5.37649 7.56647C5.38247 6.02441 6.63419 4.77745 8.17627 4.77734C9.73167 4.78671 10.9851 6.05494 10.9763 7.61034Z" stroke="#348EFF" stroke-linecap="round" stroke-linejoin="round"/>
</svg>
