<svg width="16" height="16" viewBox="0 0 16 16" fill="none" xmlns="http://www.w3.org/2000/svg">
    <rect width="16" height="16" rx="3" fill="#EEEEEE"/>
    <path d="M4.31253 10.7324C4.11723 10.9276 4.11717 11.2442 4.31239 11.4395C4.50762 11.6348 4.8242 11.6349 5.0195 11.4396L4.31253 10.7324ZM8.22783 8.23253C8.42313 8.0373 8.42319 7.72072 8.22797 7.52542C8.03274 7.33012 7.71616 7.33006 7.52086 7.52529L8.22783 8.23253ZM7.52131 7.52411C7.32612 7.71944 7.32624 8.03602 7.52158 8.23121C7.71692 8.4264 8.0335 8.42628 8.22869 8.23094L7.52131 7.52411ZM11.4358 5.02139C11.631 4.82605 11.6309 4.50947 11.4355 4.31428C11.2402 4.11909 10.9236 4.11921 10.7284 4.31455L11.4358 5.02139ZM8.22849 7.52529C8.03319 7.33006 7.7166 7.33012 7.52138 7.52542C7.32615 7.72072 7.32621 8.0373 7.52151 8.23253L8.22849 7.52529ZM10.7298 11.4396C10.9251 11.6349 11.2417 11.6348 11.437 11.4395C11.6322 11.2442 11.6321 10.9276 11.4368 10.7324L10.7298 11.4396ZM7.52073 8.23101C7.71595 8.42631 8.03254 8.42637 8.22784 8.23114C8.42313 8.03592 8.42319 7.71934 8.22797 7.52404L7.52073 8.23101ZM5.01964 4.31448C4.82441 4.11918 4.50783 4.11912 4.31253 4.31435C4.11723 4.50957 4.11717 4.82616 4.3124 5.02145L5.01964 4.31448ZM5.0195 11.4396L8.22783 8.23253L7.52086 7.52529L4.31253 10.7324L5.0195 11.4396ZM8.22869 8.23094L11.4358 5.02139L10.7284 4.31455L7.52131 7.52411L8.22869 8.23094ZM7.52151 8.23253L10.7298 11.4396L11.4368 10.7324L8.22849 7.52529L7.52151 8.23253ZM8.22797 7.52404L5.01964 4.31448L4.3124 5.02145L7.52073 8.23101L8.22797 7.52404Z"
          fill="#535456"/>
</svg>