<svg width="24" height="24" viewBox="0 0 24 24" fill="none" xmlns="http://www.w3.org/2000/svg">
    <circle cx="11.9988" cy="8.2" r="3.7" stroke="#000000"/>
    <path d="M5 18.0004C5 13.8004 6.49374 12.4004 12.0469 12.4004C17.6 12.4004 19 13.8004 19 17.8111" stroke="#000000"
          stroke-linecap="round" stroke-linejoin="round"/>
</svg>