Racer Alpha;
Millennium Alpha RS11;
Millennium Alpha RS11 Champ;
Millennium Alpha RS12;
Millennium Alpha V;
Millennium Delta RS;
Millennium Delta Sport-L;
Regulmoto Alpha (RM-1);
Regulmoto Alpha (RM-2);
Regulmoto Alpha (RM-3);
Regulmoto Alpha (RM-4);
BWS;
BWSR;
RACER RC150T-15X BWS 150;
RACER RC50QT-6X BWS;
Regulmoto DIGITA 50 (LJ50QT-3L);
Regulmoto EAGLE 50 (LJ50QT-3L);
Regulmoto ESTATE 125 (LJ125T-V);
Regulmoto GRIDO (LJ175T-18);
Regulmoto TREVIS 125 (LJ125T-16);
Regulmoto SAIGE 350W 48V20AH;
Regulmoto SAIGE JET 350W 60V20AH;
