<svg width="24" height="24" viewBox="0 0 24 24" fill="none" xmlns="http://www.w3.org/2000/svg">
    <path d="M11.9988 11.65C13.9042 11.65 15.4488 10.1054 15.4488 8.2C15.4488 6.29462 13.9042 4.75 11.9988 4.75C10.0934 4.75 8.5488 6.29462 8.5488 8.2C8.5488 10.1054 10.0934 11.65 11.9988 11.65Z"
          stroke="#000000" stroke-width="1.5"/>
    <path d="M5 18.0004C5 13.8004 6.49374 12.4004 12.0469 12.4004C17.6 12.4004 19 13.8004 19 17.8111" stroke="#000000"
          stroke-width="1.5" stroke-linecap="round" stroke-linejoin="round"/>
</svg>
