<svg width="16" height="16" viewBox="0 0 16 16" fill="none" xmlns="http://www.w3.org/2000/svg">
    <path fill-rule="evenodd" clip-rule="evenodd"
          d="M5.77605 3.33398H10.2261C11.5844 3.34426 12.6774 4.45361 12.6674 5.81198V8.82065C12.6722 9.47309 12.4176 10.1007 11.9596 10.5654C11.5016 11.0301 10.8778 11.2939 10.2254 11.2987H5.77605L3.33405 12.6673V5.81198C3.32926 5.15955 3.58385 4.53193 4.04182 4.06721C4.49979 3.60249 5.12361 3.33874 5.77605 3.33398Z"
          stroke="#ABB4C3" stroke-linecap="round" stroke-linejoin="round"/>
    <path fill-rule="evenodd" clip-rule="evenodd"
          d="M4.66797 7.33464C4.66797 6.96645 4.96645 6.66797 5.33464 6.66797C5.70283 6.66797 6.0013 6.96645 6.0013 7.33464C6.0013 7.70283 5.70283 8.0013 5.33464 8.0013C5.15782 8.0013 4.98826 7.93106 4.86323 7.80604C4.73821 7.68102 4.66797 7.51145 4.66797 7.33464Z"
          stroke="#ABB4C3" stroke-linecap="round" stroke-linejoin="round"/>
    <path fill-rule="evenodd" clip-rule="evenodd"
          d="M7.33398 7.33464C7.33398 6.96645 7.63246 6.66797 8.00065 6.66797C8.36884 6.66797 8.66732 6.96645 8.66732 7.33464C8.66732 7.70283 8.36884 8.0013 8.00065 8.0013C7.63246 8.0013 7.33398 7.70283 7.33398 7.33464Z"
          stroke="#ABB4C3" stroke-linecap="round" stroke-linejoin="round"/>
    <path fill-rule="evenodd" clip-rule="evenodd"
          d="M10 7.33464C10 6.96645 10.2985 6.66797 10.6667 6.66797C11.0349 6.66797 11.3333 6.96645 11.3333 7.33464C11.3333 7.70283 11.0349 8.0013 10.6667 8.0013C10.2985 8.0013 10 7.70283 10 7.33464Z"
          stroke="#ABB4C3" stroke-linecap="round" stroke-linejoin="round"/>
</svg>
