<svg width="176" height="176" viewBox="0 0 176 176" fill="none" xmlns="http://www.w3.org/2000/svg">
<circle cx="128" cy="38" r="8" fill="#C7E0FF"/>
<circle cx="157.476" cy="95.4758" r="5.47576" fill="#339DFF"/>
<circle cx="32" cy="125" r="15" fill="#D1E9FF"/>
<circle cx="141" cy="115" r="7" fill="#C7E0FF"/>
<circle cx="21.3697" cy="59.4869" r="3.3697" fill="#C7E0FF"/>
<circle cx="51.2121" cy="20.2121" r="4.21212" fill="#348EFF"/>
<circle cx="92.9752" cy="33.3697" r="3.3697" fill="#348EFF"/>
<path d="M126.465 62.577V57.4328C126.465 56.4582 126.076 55.5236 125.384 54.8345C124.692 54.1454 123.754 53.7583 122.775 53.7583H74.0632C73.5763 53.7663 73.0929 53.6766 72.6416 53.4948C72.1902 53.3129 71.7802 53.0426 71.436 52.6998C71.0917 52.357 70.8201 51.9487 70.6375 51.4993C70.4549 51.0499 70.3649 50.5686 70.3729 50.0838V45.6745C70.3729 44.6999 69.9841 43.7653 69.292 43.0762C68.5999 42.3871 67.6613 42 66.6826 42H41.7067C40.6962 42.0265 39.7351 42.4415 39.0252 43.1581C38.3152 43.8746 37.9113 44.837 37.8983 45.8435V119.568C37.8737 120.17 37.9689 120.77 38.1786 121.334C38.3883 121.899 38.7083 122.417 39.12 122.857C39.5318 123.298 40.0272 123.653 40.5776 123.902C41.128 124.151 41.7224 124.289 42.3267 124.308H126.465" fill="#348EFF"/>
<path d="M37.951 120.467L40.5828 48.5273C40.5957 47.5208 40.9995 46.5585 41.7096 45.842C42.4195 45.1256 43.3805 44.7106 44.3912 44.684H69.367C69.6726 44.684 69.9742 44.7215 70.2656 44.7945C70.1057 44.1493 69.7719 43.5538 69.2921 43.0764C69.0173 42.8025 68.7036 42.5766 68.364 42.4036C67.8483 42.1407 67.2728 42 66.6828 42H41.7068C40.6963 42.0266 39.7353 42.4416 39.0252 43.1581C38.3153 43.8745 37.9115 44.8369 37.8984 45.8433V119.568C37.8859 119.869 37.9038 120.17 37.951 120.467Z" fill="#72B0FF"/>
<path d="M42.3672 124.633C42.9542 124.668 43.542 124.578 44.0918 124.369C44.6416 124.16 45.141 123.837 45.5568 123.421C45.9726 123.005 46.2955 122.505 46.5041 121.954C46.7128 121.404 46.8024 120.816 46.7671 120.228L52.6557 73.6448L53.345 67.3732C53.3583 66.8899 53.4668 66.4139 53.6644 65.9727C53.862 65.5315 54.1447 65.1337 54.4963 64.8022C54.8479 64.4706 55.2615 64.2119 55.7133 64.0409C56.1651 63.8699 71.9201 63.8055 57.129 63.8055L134.216 63.4746C134.699 63.459 135.18 63.539 135.632 63.71C136.084 63.881 136.497 64.1397 136.849 64.4712C137.2 64.8028 137.483 65.2006 137.681 65.6418C137.878 66.083 137.987 66.559 138 67.0423L131.833 120.228C131.755 121.371 131.267 122.447 130.458 123.257C129.649 124.066 128.574 124.555 127.433 124.633H42.3672Z" fill="#72B0FF"/>
<path d="M42.3672 124.633C42.5328 124.643 42.6981 124.642 42.8628 124.633H42.3672Z" fill="#D1E9FF"/>
<path d="M43.8896 124.44C43.5565 124.547 43.2114 124.612 42.8628 124.633H43.8223C43.8463 124.569 43.8688 124.505 43.8896 124.44Z" fill="#D1E9FF"/>
<path d="M58.8744 63.8057L58.7206 63.7983L134.216 63.4746C134.445 63.4672 134.674 63.4811 134.9 63.5165C135.149 63.5554 135.395 63.6201 135.632 63.7096C136.084 63.8809 136.497 64.1395 136.849 64.471C137.023 64.6353 137.181 64.8161 137.319 65.0101C137.46 65.2075 137.581 65.419 137.681 65.6413C137.78 65.8624 137.856 66.0917 137.91 66.3263C137.963 66.5609 137.994 66.8007 138 67.0423L131.833 120.228C131.755 121.371 131.267 122.447 130.458 123.256C129.992 123.723 129.438 124.083 128.834 124.319C129.008 123.872 129.116 123.398 129.149 122.912L133.709 70.6943C133.696 70.2111 133.587 69.735 133.39 69.2938C133.192 68.8526 132.909 68.4546 132.558 68.123C132.206 67.7919 131.793 67.5329 131.341 67.3621C130.889 67.1908 130.408 67.1109 129.925 67.1266L60.5776 63.8852C60.8611 63.8804 61.1368 63.8756 61.3982 63.8712C63.9326 63.8284 65.1166 63.8088 58.8744 63.8057Z" fill="#D1E9FF"/>
<path d="M78.1761 86.7904C78.8796 85.7074 79.5831 84.7544 80.1928 83.9746C80.8964 83.1082 81.5999 82.4151 82.2565 81.9386C83.0069 81.3754 83.8043 81.0288 84.6485 80.7256C85.4927 80.509 86.4308 80.379 87.5095 80.4224C87.9785 80.4224 88.4944 80.639 89.151 80.8989C89.7608 81.2454 90.3236 81.6786 90.7926 82.1118C91.2616 82.5451 91.6368 83.0216 91.9651 83.5414C92.1996 84.0179 92.2934 84.4511 92.1058 84.7977C92.1058 85.0143 92.012 85.1443 91.9651 85.2309C91.8713 85.3609 91.7306 85.5341 91.4961 85.6641C91.7306 86.5305 91.9651 87.2236 92.2465 87.7868C92.5749 88.2633 92.8563 88.7832 93.1846 89.1297C93.5598 89.5629 93.8881 89.9095 94.1695 90.2127C94.5447 90.5593 94.7792 90.8625 95.1075 91.2957C95.6704 90.6026 97.1243 89.6062 99.3756 88.3066C101.533 87.0937 104.488 85.6641 108.005 84.1046C108.474 83.4115 109.084 82.7617 109.788 82.2418C110.538 81.6786 111.476 81.462 112.414 81.5487C112.649 81.5487 113.024 81.6353 113.587 81.8519C114.056 82.0685 114.525 82.2851 115.041 82.6317C115.51 82.9349 115.791 83.3248 116.119 83.8447C116.354 84.2779 116.448 84.7544 116.213 85.4042C116.119 85.5341 115.979 85.7507 115.744 86.0973C115.604 86.4005 115.369 86.5738 115.041 86.8771C114.337 87.5702 113.727 88.35 113.118 89.2164C112.508 90.0828 111.898 90.9925 111.335 91.9022C110.773 92.8119 110.351 93.8083 109.882 94.718C109.413 95.7144 108.943 96.6241 108.662 97.5338C108.287 98.5302 107.959 99.4399 107.724 100.306C107.49 101.216 107.255 101.996 106.974 102.732C106.739 103.209 106.505 103.642 106.129 103.989C105.754 104.292 105.144 104.465 104.441 104.465C104.3 104.465 104.113 104.465 104.066 104.465C103.925 104.465 103.737 104.465 103.597 104.465C103.503 104.465 103.362 104.552 103.268 104.552C103.175 104.552 103.128 104.552 103.034 104.552C102.096 104.638 101.345 104.552 100.783 104.335C100.173 104.118 99.7977 103.685 99.5632 102.992C99.4225 102.299 99.4694 101.216 99.7039 99.9598C100.032 98.6168 100.548 96.9273 101.345 94.7613C101.58 94.1115 101.814 93.5484 102.049 92.9852C102.283 92.422 102.612 91.8589 102.799 91.339C102.706 91.469 102.565 91.6423 102.424 91.6856C102.33 91.9022 102.049 92.1621 101.58 92.5953C101.111 93.0285 100.595 93.4617 100.032 93.9383C99.4225 94.4148 98.9535 94.848 98.3906 95.2812C97.9216 95.7577 97.6871 96.1476 97.6402 96.3642C97.5464 96.4508 97.5464 96.4941 97.5464 96.4941C97.6402 96.5808 97.6402 96.6241 97.5464 96.7107C97.4526 97.014 97.2181 97.2739 96.8429 97.5771C96.5146 97.7937 96.0925 98.0537 95.6235 98.2269C95.1544 98.4436 94.6385 98.5735 94.0757 98.7035C93.5129 98.8334 92.9032 98.9201 92.3872 98.9201C90.7457 99.0067 89.5263 98.5735 88.5882 97.5771C87.6502 96.6674 86.8998 95.1512 86.29 93.1152C85.9617 93.5917 85.821 94.0249 85.5865 94.4581C85.4458 94.9346 85.2113 95.3678 85.0237 95.801C84.6954 96.6674 84.4609 97.4905 84.2733 98.3569C84.0388 99.2666 83.8981 100.046 83.7105 100.826C83.476 101.606 83.3353 102.299 83.2414 102.949C83.1007 103.642 82.9131 104.205 82.7724 104.638C82.4441 105.331 81.9282 105.851 81.2247 106.068C80.4743 106.285 79.3955 106.501 77.9885 106.544C76.6752 106.674 75.5027 106.544 74.6585 106.241C73.7204 105.938 73.2045 105.331 72.8762 104.335C72.6417 103.425 72.6417 102.126 73.0169 100.436C73.3452 98.7468 73.9549 96.5375 74.8461 93.8949C75.4089 92.422 75.9248 90.9925 76.5345 89.6929C77.1912 88.5666 77.754 87.5702 78.1761 86.7904Z" fill="#348EFF"/>
<path d="M75.5628 86.7904C76.2663 85.7074 76.9698 84.7544 77.5796 83.9746C78.2831 83.1082 78.9866 82.4151 79.6432 81.9386C80.3937 81.3754 81.191 81.0288 82.0352 80.7256C82.8794 80.509 83.8175 80.379 84.8962 80.4224C85.3652 80.4224 85.8811 80.639 86.5378 80.8989C87.1475 81.2454 87.7103 81.6786 88.1793 82.1118C88.6483 82.5451 89.0235 83.0216 89.3519 83.5414C89.5864 84.0179 89.6802 84.4511 89.4926 84.7977C89.4926 85.0143 89.3988 85.1443 89.3519 85.2309C89.2581 85.3609 89.1173 85.5341 88.8828 85.6641C89.1173 86.5305 89.3519 87.2236 89.6333 87.7868C89.9616 88.2633 90.243 88.7832 90.5713 89.1297C90.9465 89.5629 91.2748 89.9095 91.5562 90.2127C91.9314 90.5593 92.1659 90.8625 92.4943 91.2957C93.0571 90.6026 94.511 89.6062 96.7623 88.3066C98.9198 87.0937 101.875 85.6641 105.392 84.1046C105.861 83.4115 106.471 82.7617 107.174 82.2418C107.925 81.6786 108.863 81.462 109.801 81.5487C110.035 81.5487 110.411 81.6353 110.973 81.8519C111.442 82.0685 111.911 82.2851 112.427 82.6317C112.896 82.9349 113.178 83.3248 113.506 83.8447C113.741 84.2779 113.834 84.7544 113.6 85.4042C113.506 85.5341 113.365 85.7507 113.131 86.0973C112.99 86.4005 112.756 86.5738 112.427 86.8771C111.724 87.5702 111.114 88.35 110.504 89.2164C109.895 90.0828 109.285 90.9925 108.722 91.9022C108.159 92.8119 107.737 93.8083 107.268 94.718C106.799 95.7144 106.33 96.6241 106.049 97.5338C105.674 98.5302 105.345 99.4399 105.111 100.306C104.876 101.216 104.642 101.996 104.36 102.732C104.126 103.209 103.891 103.642 103.516 103.989C103.141 104.292 102.531 104.465 101.828 104.465C101.687 104.465 101.499 104.465 101.452 104.465C101.312 104.465 101.124 104.465 100.983 104.465C100.89 104.465 100.749 104.552 100.655 104.552C100.561 104.552 100.514 104.552 100.421 104.552C99.4826 104.638 98.7322 104.552 98.1693 104.335C97.5596 104.118 97.1844 103.685 96.9499 102.992C96.8092 102.299 96.8561 101.216 97.0906 99.9598C97.4189 98.6168 97.9348 96.9273 98.7322 94.7613C98.9667 94.1115 99.2012 93.5484 99.4357 92.9852C99.6702 92.422 99.9985 91.8589 100.186 91.339C100.092 91.469 99.9516 91.6423 99.8109 91.6856C99.7171 91.9022 99.4357 92.1621 98.9667 92.5953C98.4977 93.0285 97.9817 93.4617 97.4189 93.9383C96.8092 94.4148 96.3402 94.848 95.7774 95.2812C95.3083 95.7577 95.0738 96.1476 95.0269 96.3642C94.9331 96.4508 94.9331 96.4941 94.9331 96.4941C95.0269 96.5808 95.0269 96.6241 94.9331 96.7107C94.8393 97.014 94.6048 97.2739 94.2296 97.5771C93.9013 97.7937 93.4792 98.0537 93.0102 98.2269C92.5412 98.4436 92.0252 98.5735 91.4624 98.7035C90.8996 98.8334 90.2899 98.9201 89.774 98.9201C88.1324 99.0067 86.913 98.5735 85.9749 97.5771C85.0369 96.6674 84.2865 95.1512 83.6768 93.1152C83.3485 93.5917 83.2078 94.0249 82.9732 94.4581C82.8325 94.9346 82.598 95.3678 82.4104 95.801C82.0821 96.6674 81.8476 97.4905 81.66 98.3569C81.4255 99.2666 81.2848 100.046 81.0972 100.826C80.8627 101.606 80.722 102.299 80.6282 102.949C80.4875 103.642 80.2999 104.205 80.1592 104.638C79.8308 105.331 79.3149 105.851 78.6114 106.068C77.861 106.285 76.7822 106.501 75.3752 106.544C74.062 106.674 72.8894 106.544 72.0452 106.241C71.1072 105.938 70.5912 105.331 70.2629 104.335C70.0284 103.425 70.0284 102.126 70.4036 100.436C70.7319 98.7468 71.3417 96.5375 72.2328 93.8949C72.7956 92.422 73.3115 90.9925 73.9212 89.6929C74.5779 88.5666 75.1407 87.5702 75.5628 86.7904Z" fill="white"/>
</svg>
