<svg width="7" height="12" viewBox="0 0 7 12" fill="none" xmlns="http://www.w3.org/2000/svg">
    <g clip-path="url(#clip0_1_17)">
        <path d="M1 1L6 6L1 11" stroke="#000000" stroke-width="1.5" stroke-linecap="round" stroke-linejoin="round"/>
    </g>
    <defs>
        <clipPath id="clip0_1_17">
            <rect width="7" height="12" fill="white"/>
        </clipPath>
    </defs>
</svg>
