<svg width="32" height="32" viewBox="0 0 32 32" fill="none" xmlns="http://www.w3.org/2000/svg">
    <path fill-rule="evenodd" clip-rule="evenodd"
          d="M20 11.3327C20 11.7009 20.2985 11.9993 20.6667 11.9993C21.0349 11.9993 21.3333 11.7009 21.3333 11.3327C21.3333 10.9645 21.0349 10.666 20.6667 10.666C20.2985 10.666 20 10.9645 20 11.3327Z"
          stroke="#000000" stroke-width="1.5" stroke-linecap="round" stroke-linejoin="round"/>
    <path d="M24.5837 14.666C24.5837 15.0802 24.9195 15.416 25.3337 15.416C25.7479 15.416 26.0837 15.0802 26.0837 14.666H24.5837ZM6.667 19.9993L7.417 20.0004V19.9993H6.667ZM7.12369 23.6352C7.37175 23.9669 7.84176 24.0347 8.17348 23.7867C8.5052 23.5386 8.57303 23.0686 8.32497 22.7369L7.12369 23.6352ZM26.0837 14.666C26.0837 14.2518 25.7479 13.916 25.3337 13.916C24.9195 13.916 24.5837 14.2518 24.5837 14.666H26.0837ZM12.0003 25.3327V24.5827H11.9999L12.0003 25.3327ZM8.32607 22.7383C8.07883 22.406 7.609 22.337 7.27666 22.5843C6.94433 22.8315 6.87535 23.3014 7.1226 23.6337L8.32607 22.7383ZM25.8374 15.2217C26.1443 14.9434 26.1675 14.4691 25.8893 14.1623C25.6111 13.8554 25.1368 13.8322 24.8299 14.1104L25.8374 15.2217ZM19.067 20.3473L18.5632 19.7917L18.5582 19.7964L19.067 20.3473ZM18.0529 20.6966L17.9913 21.4441L18.0529 20.6966ZM17.1097 20.186L17.7018 19.7258L17.7015 19.7253L17.1097 20.186ZM14.431 16.7447L15.0228 16.284L15.0217 16.2826L14.431 16.7447ZM13.3533 16.2332L13.3379 15.4833L13.3533 16.2332ZM12.2977 16.7887L11.6884 16.3513L11.6875 16.3525L12.2977 16.7887ZM7.11421 22.7498C6.87332 23.0868 6.9512 23.5553 7.28817 23.7961C7.62513 24.037 8.09357 23.9591 8.33446 23.6222L7.11421 22.7498ZM26.0837 14.666V11.9993H24.5837V14.666H26.0837ZM26.0837 11.9993C26.0837 8.63962 23.3601 5.91602 20.0003 5.91602V7.41602C22.5316 7.41602 24.5837 9.46804 24.5837 11.9993H26.0837ZM20.0003 5.91602H12.0003V7.41602H20.0003V5.91602ZM12.0003 5.91602C8.6406 5.91602 5.917 8.63962 5.917 11.9993H7.417C7.417 9.46804 9.46903 7.41602 12.0003 7.41602V5.91602ZM5.917 11.9993V19.9993H7.417V11.9993H5.917ZM5.917 19.9983C5.91524 21.3092 6.33865 22.5853 7.12369 23.6352L8.32497 22.7369C7.73427 21.9469 7.41568 20.9867 7.417 20.0004L5.917 19.9983ZM24.5837 14.666V19.9993H26.0837V14.666H24.5837ZM24.5837 19.9993C24.5837 22.5307 22.5316 24.5827 20.0003 24.5827V26.0827C23.3601 26.0827 26.0837 23.3591 26.0837 19.9993H24.5837ZM20.0003 24.5827H12.0003V26.0827H20.0003V24.5827ZM11.9999 24.5827C10.5525 24.5836 9.19001 23.8996 8.32607 22.7383L7.1226 23.6337C8.26977 25.1757 10.0789 26.0839 12.0008 26.0827L11.9999 24.5827ZM24.8299 14.1104L18.5633 19.7917L19.5707 20.903L25.8374 15.2217L24.8299 14.1104ZM18.5582 19.7964C18.4382 19.9071 18.2773 19.9626 18.1145 19.9492L17.9913 21.4441C18.5726 21.492 19.1473 21.294 19.5758 20.8983L18.5582 19.7964ZM18.1145 19.9492C17.9517 19.9357 17.8021 19.8547 17.7018 19.7258L16.5175 20.6463C16.8754 21.1068 17.41 21.3962 17.9913 21.4441L18.1145 19.9492ZM17.7015 19.7253L15.0228 16.284L13.8392 17.2054L16.5178 20.6467L17.7015 19.7253ZM15.0217 16.2826C14.6176 15.7659 13.9937 15.4698 13.3379 15.4833L13.3688 16.983C13.5524 16.9792 13.7271 17.0621 13.8403 17.2068L15.0217 16.2826ZM13.3379 15.4833C12.6821 15.4968 12.0709 15.8184 11.6884 16.3513L12.9069 17.226C13.014 17.0768 13.1852 16.9868 13.3688 16.983L13.3379 15.4833ZM11.6875 16.3525L7.11421 22.7498L8.33446 23.6222L12.9078 17.2249L11.6875 16.3525Z"
          fill="#000000"/>
</svg>
