<svg width="32" height="32" viewBox="0 0 32 32" fill="none" xmlns="http://www.w3.org/2000/svg">
    <path fill-rule="evenodd" clip-rule="evenodd"
          d="M11.0333 23.9119L8.46267 25.1706C8.36428 25.2196 8.24762 25.2147 8.1537 25.1576C8.05978 25.1005 8.00175 24.9992 8 24.8893V7.1106C8.0022 7.00093 8.06041 6.90002 8.15425 6.84323C8.2481 6.78644 8.36449 6.78167 8.46267 6.8306L11.0333 8.08926C11.1361 8.13927 11.2576 8.13168 11.3533 8.06926L13.4227 6.7186C13.5305 6.64849 13.6695 6.64849 13.7773 6.7186L15.8227 8.05193C15.9305 8.12203 16.0695 8.12203 16.1773 8.05193L18.2227 6.7186C18.3305 6.64849 18.4695 6.64849 18.5773 6.7186L20.6453 8.06926C20.7411 8.13168 20.8626 8.13927 20.9653 8.08926L23.5373 6.8306C23.6355 6.78167 23.7519 6.78644 23.8457 6.84323C23.9396 6.90002 23.9978 7.00093 24 7.1106V24.8893C23.9978 24.9989 23.9396 25.0998 23.8457 25.1566C23.7519 25.2134 23.6355 25.2182 23.5373 25.1693L20.9667 23.9106C20.8639 23.8606 20.7424 23.8682 20.6467 23.9306L18.5773 25.2813C18.4695 25.3514 18.3305 25.3514 18.2227 25.2813L16.1773 23.9479C16.0695 23.8778 15.9305 23.8778 15.8227 23.9479L13.7773 25.2813C13.6695 25.3514 13.5305 25.3514 13.4227 25.2813L11.3547 23.9306C11.2584 23.8681 11.1362 23.861 11.0333 23.9119Z"
          stroke="#000000" stroke-width="1.5" stroke-linecap="round" stroke-linejoin="round"/>
    <path d="M12 16.0007L14.7656 18.6673L20.2963 13.334" stroke="#000000" stroke-width="1.5" stroke-linecap="round"
          stroke-linejoin="round"/>
</svg>
