<svg width="24" height="24" viewBox="0 0 24 24" fill="none" xmlns="http://www.w3.org/2000/svg">
<path d="M11.724 20.3489C11.8182 20.4456 11.9476 20.5001 12.0826 20.5C12.2176 20.4999 12.3468 20.4451 12.4409 20.3483L15.8136 16.874L15.8143 16.8732L19.1628 13.4093L19.1628 13.4093L19.1664 13.4054C21.1604 11.2983 21.1604 8.00024 19.1664 5.89305C19.161 5.88731 19.1554 5.8817 19.1497 5.87622C18.1626 4.92754 16.8257 4.43179 15.4587 4.50757C14.1602 4.57955 12.9457 5.16107 12.0762 6.12078C11.2075 5.16726 9.997 4.58968 8.70323 4.51796C7.33626 4.44218 5.99929 4.93793 5.01219 5.88661C5.00649 5.89209 5.00092 5.8977 4.99548 5.90345C3.00151 8.01064 3.0015 11.3086 4.99548 13.4158L4.99546 13.4159L4.99917 13.4197L8.34761 16.8836L8.34899 16.885L11.724 20.3489Z" stroke="#535456" stroke-linecap="round" stroke-linejoin="round"/>
</svg>
