<svg width="42" height="42" viewBox="0 0 42 42" fill="none" xmlns="http://www.w3.org/2000/svg">
    <path fill-rule="evenodd" clip-rule="evenodd"
          d="M20.9995 33.2344L15.8842 27.9844L10.8092 22.7344C8.0636 19.8329 8.0636 15.2917 10.8092 12.3902C12.1536 11.0981 13.9746 10.4228 15.8364 10.5261C17.6982 10.6293 19.4334 11.5016 20.6267 12.9344L20.9995 13.3002L21.3687 12.9187C22.5621 11.4859 24.2972 10.6135 26.159 10.5103C28.0208 10.4071 29.8418 11.0823 31.1862 12.3744C33.9318 15.2759 33.9318 19.8171 31.1862 22.7186L26.1112 27.9686L20.9995 33.2344Z"
          stroke="#000000" stroke-width="2" stroke-linecap="round" stroke-linejoin="round"/>
</svg>
