<svg width="24" height="24" viewBox="0 0 24 24" fill="none" xmlns="http://www.w3.org/2000/svg">
    <path fill-rule="evenodd" clip-rule="evenodd"
          d="M19 12.7147C19 15.0817 15.866 17.0007 12 17.0007C8.134 17.0007 5 15.0817 5 12.7147C5 10.3477 8.134 8.42969 12 8.42969C15.866 8.42969 19 10.3477 19 12.7147Z"
          stroke="#000000" stroke-width="1.5" stroke-linecap="round" stroke-linejoin="round"/>
    <path fill-rule="evenodd" clip-rule="evenodd"
          d="M13.7497 12.7141C13.7643 13.425 13.3473 14.0741 12.6947 14.3563C12.0421 14.6386 11.2835 14.4979 10.7755 14.0003C10.2676 13.5028 10.1111 12.7473 10.3797 12.089C10.6484 11.4306 11.2886 11.0002 11.9997 11.0001C12.459 10.9953 12.9015 11.1732 13.2297 11.4946C13.5579 11.8161 13.7449 12.2547 13.7497 12.7141V12.7141Z"
          stroke="#000000" stroke-width="1.5" stroke-linecap="round" stroke-linejoin="round"/>
    <path d="M11.25 8.429C11.25 8.84321 11.5858 9.179 12 9.179C12.4142 9.179 12.75 8.84321 12.75 8.429H11.25ZM12.75 5C12.75 4.58579 12.4142 4.25 12 4.25C11.5858 4.25 11.25 4.58579 11.25 5H12.75ZM18.7931 7.05471C18.9813 6.68571 18.8347 6.23403 18.4657 6.04586C18.0967 5.85769 17.645 6.00428 17.4569 6.37329L18.7931 7.05471ZM16.0199 9.19129C15.8317 9.5603 15.9783 10.012 16.3473 10.2001C16.7163 10.3883 17.168 10.2417 17.3561 9.87271L16.0199 9.19129ZM6.54314 6.37329C6.35497 6.00428 5.90329 5.85769 5.53429 6.04586C5.16528 6.23403 5.01869 6.68571 5.20686 7.05471L6.54314 6.37329ZM6.64386 9.87271C6.83203 10.2417 7.28371 10.3883 7.65271 10.2001C8.02172 10.012 8.16831 9.5603 7.98014 9.19129L6.64386 9.87271ZM12.75 8.429V5H11.25V8.429H12.75ZM17.4569 6.37329L16.0199 9.19129L17.3561 9.87271L18.7931 7.05471L17.4569 6.37329ZM5.20686 7.05471L6.64386 9.87271L7.98014 9.19129L6.54314 6.37329L5.20686 7.05471Z"
          fill="#000000"/>
</svg>
